<svg viewBox="0 0 29 28" fill="inherit" xmlns="http://www.w3.org/2000/svg">
<path d="M25.6293 5.23276H24.317C25.1464 6.66123 25.6293 8.31449 25.6293 10.0819C25.6293 15.4296 21.2787 19.7802 15.931 19.7802C10.5833 19.7802 6.23276 15.4296 6.23276 10.0819C6.23276 8.31449 6.71565 6.66123 7.54506 5.23276H6.23276C4.4502 5.23276 3 6.68295 3 8.46552V24.6293C3 26.4119 4.4502 27.8621 6.23276 27.8621H25.6293C27.4119 27.8621 28.8621 26.4119 28.8621 24.6293V8.46552C28.8621 6.68295 27.4119 5.23276 25.6293 5.23276ZM15.931 18.1638C20.3948 18.1638 24.0129 14.5456 24.0129 10.0819C24.0129 5.61816 20.3948 2 15.931 2C11.4673 2 7.84914 5.61816 7.84914 10.0819C7.84914 14.5456 11.4673 18.1638 15.931 18.1638ZM15.9159 10.489L17.6121 6.53091C17.7889 6.11823 18.2657 5.92881 18.6743 6.10611C19.0845 6.28189 19.2744 6.75721 19.0991 7.16686L17.3984 11.1346C17.7358 11.4962 17.9515 11.9736 17.9515 12.5065C17.9515 13.6223 17.0468 14.5269 15.931 14.5269C14.8152 14.5269 13.9106 13.6223 13.9106 12.5065C13.9106 11.3962 14.8077 10.4976 15.9159 10.489Z" fill="inherit"/>
</svg>
